{
    "Type": "Parameters",
    "DataDirectory": "/home/dtcc/core/data/Majorna2021",
    "DomainHeight": 100.0,
    "ElevationModelResolution": 1.0,
    "MeshResolution": 20.0,
    "X0": 315000,
    "Y0": 6397500,
    "XMin": 0,
    "YMin": 0,
    "XMax": 2500,
    "YMax": 2500,
    "MinBuildingDistance": 1.0,
    "MinVertexDistance": 1.0,
    "GroundMargin": 1.0,
    "GroundPercentile": 0.1,
    "RoofPercentile": 0.9,
    "OutlierMargin": 2.0,
    "GroundSmoothing": 2,
    "NumRandomBuildings": 11585,
    "GenerateSurfaceMeshes": true,
    "GenerateVolumeMeshes": true,
    "WriteJSON": true,
    "WriteVTK": true,
    "Debug": true
}
